Command line:
   kernBL_isim_beh.exe
     -simmode  gui
     -simrunnum  0
     -socket  58093

Fri Jan 17 09:29:58 2020


 Elaboration Time: 0.02 sec

 Current Memory Usage: 197.018 Meg

 Total Signals          : 19
 Total Nets             : 75
 Total Signal Drivers   : 11
 Total Blocks           : 3
 Total Primitive Blocks : 2
 Total Processes        : 16
 Total Traceable Variables  : 30
 Total Scalar Nets and Variables : 334
Total Line Count : 46

 Total Simulation Time: 0.03 sec

 Current Memory Usage: 272.519 Meg

Fri Jan 17 09:32:18 2020

