<?xml version="1.0" encoding="UTF-8"?>
<symbol version="7" name="Kernel">
    <symboltype>BLOCK</symboltype>
    <timestamp>2020-1-17T7:40:31</timestamp>
    <attr value="Kernel" name="VeriModel" />
    <pin polarity="Input" x="0" y="-96" name="clk" />
    <pin polarity="Input" x="0" y="32" name="setF_clk" />
    <pin polarity="Input" x="0" y="-32" name="dataIn(11:0)" />
    <pin polarity="Input" x="0" y="96" name="addr(11:0)" />
    <pin polarity="Input" x="0" y="160" name="fVal(15:0)" />
    <pin polarity="Output" x="384" y="-96" name="dataOut(11:0)" />
    <graph>
        <attrtext style="alignment:BCENTER;fontsize:56;fontname:Arial" attrname="SymbolName" x="192" y="-136" type="symbol" />
        <attrtext style="fontsize:24;fontname:Arial" attrname="PinName" x="72" y="-96" type="pin clk" />
        <attrtext style="fontsize:24;fontname:Arial" attrname="PinName" x="72" y="32" type="pin setF_clk" />
        <attrtext style="fontsize:24;fontname:Arial" attrname="PinName" x="72" y="-32" type="pin dataIn(11:0)" />
        <attrtext style="fontsize:24;fontname:Arial" attrname="PinName" x="72" y="96" type="pin addr(11:0)" />
        <attrtext style="fontsize:24;fontname:Arial" attrname="PinName" x="72" y="160" type="pin fVal(15:0)" />
        <attrtext style="alignment:RIGHT;fontsize:24;fontname:Arial" attrname="PinName" x="312" y="-96" type="pin dataOut(11:0)" />
        <line x2="0" y1="32" y2="32" x1="64" />
        <rect width="64" x="0" y="84" height="24" />
        <line x2="0" y1="96" y2="96" x1="64" />
        <rect width="64" x="0" y="148" height="24" />
        <line x2="0" y1="160" y2="160" x1="64" />
        <line x2="0" y1="-96" y2="-96" x1="64" />
        <rect width="64" x="0" y="-44" height="24" />
        <line x2="0" y1="-32" y2="-32" x1="64" />
        <rect width="64" x="320" y="-108" height="24" />
        <line x2="384" y1="-96" y2="-96" x1="320" />
        <rect width="256" x="64" y="-128" height="384" />
    </graph>
</symbol>
