<?xml version="1.0" encoding="UTF-8"?>
<symbol version="7" name="LedCheck">
    <symboltype>BLOCK</symboltype>
    <timestamp>2020-1-17T7:50:26</timestamp>
    <attr value="LedCheck" name="VeriModel" />
    <pin polarity="Input" x="0" y="-224" name="clk" />
    <pin polarity="Input" x="0" y="-128" name="L(11:0)" />
    <pin polarity="Input" x="0" y="32" name="R(11:0)" />
    <pin polarity="Output" x="384" y="-224" name="LED0" />
    <pin polarity="Output" x="384" y="-160" name="LED1" />
    <pin polarity="Output" x="384" y="-96" name="LED2" />
    <pin polarity="Output" x="384" y="-32" name="LED3" />
    <graph>
        <attrtext style="alignment:BCENTER;fontsize:56;fontname:Arial" attrname="SymbolName" x="192" y="-264" type="symbol" />
        <attrtext style="fontsize:24;fontname:Arial" attrname="PinName" x="72" y="-224" type="pin clk" />
        <attrtext style="fontsize:24;fontname:Arial" attrname="PinName" x="72" y="-128" type="pin L(11:0)" />
        <attrtext style="fontsize:24;fontname:Arial" attrname="PinName" x="72" y="32" type="pin R(11:0)" />
        <attrtext style="alignment:RIGHT;fontsize:24;fontname:Arial" attrname="PinName" x="312" y="-224" type="pin LED0" />
        <attrtext style="alignment:RIGHT;fontsize:24;fontname:Arial" attrname="PinName" x="312" y="-160" type="pin LED1" />
        <attrtext style="alignment:RIGHT;fontsize:24;fontname:Arial" attrname="PinName" x="312" y="-96" type="pin LED2" />
        <attrtext style="alignment:RIGHT;fontsize:24;fontname:Arial" attrname="PinName" x="312" y="-32" type="pin LED3" />
        <rect width="64" x="0" y="20" height="24" />
        <line x2="0" y1="32" y2="32" x1="64" />
        <line x2="0" y1="-224" y2="-224" x1="64" />
        <rect width="64" x="0" y="-140" height="24" />
        <line x2="0" y1="-128" y2="-128" x1="64" />
        <line x2="384" y1="-224" y2="-224" x1="320" />
        <line x2="384" y1="-160" y2="-160" x1="320" />
        <line x2="384" y1="-96" y2="-96" x1="320" />
        <line x2="384" y1="-32" y2="-32" x1="320" />
        <rect width="256" x="64" y="-256" height="320" />
    </graph>
</symbol>
