<?xml version="1.0" encoding="UTF-8"?>
<symbol version="7" name="slowClock">
    <symboltype>BLOCK</symboltype>
    <timestamp>2020-1-17T7:50:34</timestamp>
    <attr value="slowClock" name="VeriModel" />
    <pin polarity="Input" x="0" y="-32" name="clk" />
    <pin polarity="Output" x="384" y="-32" name="o_clk" />
    <graph>
        <attrtext style="alignment:BCENTER;fontsize:56;fontname:Arial" attrname="SymbolName" x="192" y="-72" type="symbol" />
        <attrtext style="fontsize:24;fontname:Arial" attrname="PinName" x="72" y="-32" type="pin clk" />
        <attrtext style="alignment:RIGHT;fontsize:24;fontname:Arial" attrname="PinName" x="312" y="-32" type="pin o_clk" />
        <rect width="256" x="64" y="-64" height="64" />
        <line x2="0" y1="-32" y2="-32" x1="64" />
        <line x2="384" y1="-32" y2="-32" x1="320" />
    </graph>
</symbol>
